mtllib PumpkinYay.mtl
o Pumpkin_Yay_Cube.006
v 0.098603 0.433973 0.226411
v 0.167093 0.433973 0.167093
v 0.137984 0.435634 0.137984
v 0.081426 0.435634 0.186968
v -0.000000 0.433973 0.230099
v -0.000000 0.435634 0.190014
v 0.172398 0.368968 0.395856
v 0.292145 0.368968 0.292145
v 0.226411 0.433973 0.098603
v 0.186968 0.435634 0.081426
v 0.260918 0.365599 0.260918
v -0.098603 0.433973 0.226411
v -0.081426 0.435634 0.186968
v 0.000000 0.368968 0.402305
v 0.146435 0.365599 0.336240
v 0.326412 0.202301 0.472153
v 0.404512 0.202301 0.404512
v 0.218421 0.253289 0.501533
v 0.223588 0.254372 0.495696
v 0.395856 0.368968 0.172398
v 0.230100 0.433973 -0.000000
v 0.190014 0.435634 -0.000000
v 0.336240 0.365599 0.146435
v -0.167093 0.433973 0.167093
v -0.137984 0.435634 0.137984
v -0.172398 0.368968 0.395856
v -0.000000 0.365599 0.359303
v 0.000000 0.202301 0.557043
v 0.096611 0.202301 0.553429
v 0.110816 0.230741 0.526493
v 0.264130 0.035635 0.606489
v 0.447594 0.035635 0.447594
v 0.359992 0.185296 0.451273
v 0.389076 0.039734 0.496298
v 0.248421 0.138615 0.570419
v 0.548113 0.202301 0.238707
v 0.402305 0.368968 -0.000000
v 0.226411 0.433973 -0.098603
v 0.186968 0.435634 -0.081426
v 0.359303 0.365599 -0.000000
v 0.369014 0.201286 0.369014
v 0.328415 0.201286 0.395725
v 0.223588 0.254372 0.406794
v 0.190093 0.247353 0.436487
v 0.475541 0.201286 0.207101
v -0.226411 0.433973 0.098603
v -0.186968 0.435634 0.081426
v -0.292145 0.368968 0.292145
v -0.146435 0.365599 0.336240
v -0.132019 0.202301 0.552104
v -0.222628 0.242714 0.511194
v -0.152625 0.232559 0.523241
v 0.000000 0.035635 0.616370
v 0.223588 0.156072 0.565134
v 0.045375 0.099721 0.591860
v 0.110816 0.230741 0.464022
v 0.096104 0.201286 0.493023
v -0.000000 0.201286 0.508159
v 0.334049 -0.131032 0.518988
v 0.433155 -0.131032 0.433155
v 0.256837 -0.107012 0.589743
v 0.361809 -0.071012 0.504649
v 0.606489 0.035635 0.264130
v 0.557043 0.202301 -0.000000
v 0.395856 0.368968 -0.172398
v 0.167093 0.433973 -0.167093
v 0.137984 0.435634 -0.137984
v 0.336240 0.365599 -0.146435
v 0.508159 0.201286 -0.000000
v 0.421605 0.034280 0.421605
v 0.236617 0.034280 0.543315
v 0.215542 0.153528 0.494922
v 0.223588 0.156072 0.488300
v 0.389076 0.039734 0.440160
v 0.359992 0.185296 0.383298
v 0.543315 0.034280 0.236617
v -0.230100 0.433973 -0.000000
v -0.190014 0.435634 -0.000000
v -0.395856 0.368968 0.172398
v -0.260918 0.365599 0.260918
v -0.404512 0.202301 0.404512
v -0.383020 0.202301 0.423126
v -0.378169 0.210745 0.416704
v -0.265397 0.248919 0.466347
v -0.264130 0.035635 0.606489
v -0.070824 0.112446 0.586379
v -0.244730 0.162812 0.561944
v -0.131327 0.201286 0.487475
v -0.152625 0.232559 0.455791
v -0.193372 0.238470 0.444018
v 0.000000 -0.131032 0.596486
v 0.186797 -0.131032 0.589498
v 0.045375 0.099721 0.545056
v -0.000000 0.034280 0.580582
v 0.221747 -0.297699 0.472993
v 0.356386 -0.297699 0.356386
v 0.260013 -0.291103 0.445521
v 0.586924 -0.131032 0.255609
v 0.616370 0.035634 -0.000000
v 0.548113 0.202301 -0.238707
v 0.292145 0.368968 -0.292145
v 0.098603 0.433973 -0.226411
v 0.081426 0.435634 -0.186968
v 0.260918 0.365599 -0.260918
v 0.475541 0.201286 -0.207101
v 0.580582 0.034280 -0.000000
v 0.410668 -0.132727 0.410668
v 0.333265 -0.132727 0.461594
v 0.361809 -0.071012 0.449515
v 0.231100 -0.115839 0.530646
v 0.529220 -0.132727 0.230479
v -0.226411 0.433973 -0.098603
v -0.186968 0.435634 -0.081426
v -0.402305 0.368968 -0.000000
v -0.336240 0.365599 0.146435
v -0.548113 0.202301 0.238707
v -0.422096 0.134279 0.422095
v -0.265397 0.248919 0.385234
v -0.358386 0.217442 0.358386
v -0.447594 0.035635 0.447594
v -0.265397 0.168797 0.541158
v -0.436509 0.078520 0.436509
v -0.122767 -0.131032 0.591893
v -0.257502 -0.094003 0.591271
v -0.236617 0.034280 0.543315
v -0.215402 0.154318 0.494602
v -0.070824 0.112446 0.535530
v 0.000000 -0.164772 0.575085
v 0.049081 -0.178261 0.564692
v 0.181855 -0.132727 0.536879
v -0.000000 -0.132727 0.565520
v 0.208722 -0.299944 0.479263
v 0.139057 -0.398652 0.319299
v 0.235645 -0.398652 0.235645
v 0.482901 -0.297699 0.210307
v 0.596486 -0.131032 0.000000
v 0.606489 0.035634 -0.264130
v 0.404512 0.202301 -0.404512
v 0.172398 0.368968 -0.395856
v -0.000000 0.433973 -0.230100
v -0.000000 0.435634 -0.190014
v 0.146435 0.365599 -0.336240
v 0.369014 0.201286 -0.369014
v 0.543315 0.034280 -0.236617
v 0.565520 -0.132727 -0.000000
v 0.336940 -0.297040 0.336940
v 0.225570 -0.297040 0.410213
v 0.260013 -0.291103 0.391968
v 0.434208 -0.297040 0.189100
v -0.167093 0.433973 -0.167093
v -0.137984 0.435634 -0.137984
v -0.395856 0.368968 -0.172398
v -0.359303 0.365599 -0.000000
v -0.557043 0.202301 -0.000000
v -0.606489 0.035635 0.264130
v -0.461788 0.065183 0.414749
v -0.378169 0.210745 0.339417
v -0.383603 0.201286 0.346839
v -0.475541 0.201286 0.207101
v -0.433155 -0.131032 0.433155
v -0.287690 -0.131032 0.559138
v -0.334543 -0.072830 0.527971
v -0.231641 -0.101110 0.531889
v -0.116601 -0.132727 0.547156
v -0.421605 0.034280 0.421605
v -0.401929 0.096764 0.401929
v -0.265397 0.168797 0.454149
v 0.049081 -0.178261 0.529654
v -0.000000 -0.164772 0.545719
v -0.000000 -0.398652 0.324501
v 0.049081 -0.327459 0.439918
v -0.000000 -0.314797 0.462609
v 0.151109 -0.398652 0.151109
v 0.319299 -0.398652 0.139057
v 0.490769 -0.297699 0.000000
v 0.586924 -0.131032 -0.255609
v 0.447594 0.035634 -0.447594
v 0.238707 0.202301 -0.548113
v 0.000000 0.368968 -0.402305
v -0.098603 0.433973 -0.226411
v -0.081426 0.435634 -0.186968
v -0.000000 0.365599 -0.359303
v 0.207101 0.201286 -0.475541
v 0.421605 0.034280 -0.421605
v 0.529220 -0.132727 -0.230479
v 0.463991 -0.297040 -0.000000
v 0.226049 -0.372462 0.226049
v 0.126865 -0.372462 0.291304
v 0.183053 -0.304368 0.420323
v 0.291304 -0.372462 0.126865
v -0.292145 0.368968 -0.292145
v -0.336240 0.365599 -0.146435
v -0.548113 0.202301 -0.238707
v -0.616370 0.035634 -0.000000
v -0.508159 0.201286 -0.000000
v -0.586924 -0.131032 0.255609
v -0.461788 0.065183 0.336009
v -0.543315 0.034280 0.236617
v -0.356386 -0.297699 0.356386
v -0.210307 -0.297699 0.482901
v -0.239254 -0.191203 0.549369
v -0.334543 -0.072830 0.467257
v -0.286326 -0.132727 0.492477
v -0.410668 -0.132727 0.410668
v -0.066276 -0.297699 0.488290
v -0.139057 -0.398652 0.319299
v -0.000000 -0.398652 0.170600
v 0.170600 -0.398652 0.000000
v 0.324501 -0.398652 0.000000
v 0.482901 -0.297699 -0.210307
v 0.433155 -0.131032 -0.433155
v 0.264130 0.035634 -0.606489
v 0.000000 0.202301 -0.557043
v -0.172398 0.368968 -0.395856
v -0.146435 0.365599 -0.336240
v -0.000000 0.201286 -0.508159
v 0.236617 0.034280 -0.543315
v 0.410668 -0.132727 -0.410668
v 0.434208 -0.297040 -0.189100
v 0.311285 -0.372462 -0.000000
v 0.137860 -0.372462 0.137860
v -0.000000 -0.372462 0.311285
v -0.000000 -0.314797 0.428039
v 0.049081 -0.327459 0.394672
v -0.260918 0.365599 -0.260918
v -0.404512 0.202301 -0.404512
v -0.606489 0.035634 -0.264130
v -0.475541 0.201286 -0.207101
v -0.596486 -0.131032 0.000000
v -0.580582 0.034280 -0.000000
v -0.482901 -0.297699 0.210307
v -0.529220 -0.132727 0.230479
v -0.235645 -0.398652 0.235645
v -0.176395 -0.269290 0.502190
v -0.205054 -0.233688 0.470841
v -0.189100 -0.297040 0.434208
v -0.336940 -0.297040 0.336940
v -0.151109 -0.398652 0.151109
v -0.000000 -0.398652 0.000000
v 0.151109 -0.398652 -0.151109
v 0.319299 -0.398652 -0.139057
v 0.356386 -0.297699 -0.356386
v 0.255609 -0.131032 -0.586924
v 0.000000 0.035634 -0.616370
v -0.238707 0.202301 -0.548113
v -0.207101 0.201286 -0.475541
v -0.000000 0.034280 -0.580582
v 0.230479 -0.132727 -0.529220
v 0.336940 -0.297040 -0.336940
v 0.291304 -0.372462 -0.126865
v 0.155643 -0.372462 -0.000000
v -0.000000 -0.372462 0.155643
v -0.126865 -0.372462 0.291304
v -0.068830 -0.297040 0.453150
v -0.447594 0.035634 -0.447594
v -0.369014 0.201286 -0.369014
v -0.586924 -0.131032 -0.255609
v -0.543315 0.034280 -0.236617
v -0.490769 -0.297699 0.000000
v -0.565520 -0.132727 -0.000000
v -0.319299 -0.398652 0.139057
v -0.434208 -0.297040 0.189100
v -0.176395 -0.269290 0.453356
v -0.226049 -0.372462 0.226049
v -0.170600 -0.398652 0.000000
v -0.000000 -0.398652 -0.170600
v 0.139057 -0.398652 -0.319299
v 0.235645 -0.398652 -0.235645
v 0.210307 -0.297699 -0.482901
v 0.000000 -0.131032 -0.596486
v -0.264130 0.035634 -0.606489
v -0.236617 0.034280 -0.543315
v -0.000000 -0.132727 -0.565520
v 0.189100 -0.297040 -0.434208
v 0.226049 -0.372462 -0.226049
v 0.137860 -0.372462 -0.137861
v -0.000000 -0.372462 -0.000000
v -0.137860 -0.372462 0.137860
v -0.433155 -0.131032 -0.433155
v -0.421605 0.034280 -0.421605
v -0.482901 -0.297699 -0.210307
v -0.529220 -0.132727 -0.230479
v -0.324501 -0.398652 0.000000
v -0.463991 -0.297040 -0.000000
v -0.291304 -0.372462 0.126865
v -0.151109 -0.398652 -0.151109
v -0.000000 -0.398652 -0.324501
v 0.000000 -0.297699 -0.490769
v -0.255609 -0.131032 -0.586924
v -0.230479 -0.132727 -0.529220
v -0.000000 -0.297040 -0.463991
v 0.126865 -0.372462 -0.291304
v -0.000000 -0.372462 -0.155643
v -0.155643 -0.372462 -0.000000
v -0.356386 -0.297699 -0.356386
v -0.410668 -0.132727 -0.410668
v -0.319299 -0.398652 -0.139057
v -0.434208 -0.297040 -0.189100
v -0.311285 -0.372462 -0.000000
v -0.139057 -0.398652 -0.319299
v -0.210307 -0.297699 -0.482901
v -0.189100 -0.297040 -0.434208
v -0.000000 -0.372462 -0.311285
v -0.137860 -0.372462 -0.137861
v -0.235645 -0.398652 -0.235645
v -0.336940 -0.297040 -0.336940
v -0.291304 -0.372462 -0.126865
v -0.126865 -0.372462 -0.291304
v -0.226049 -0.372462 -0.226049
vt 0.717270 0.353738
vt 0.712182 0.365431
vt 0.690340 0.357733
vt 0.662051 0.353735
vt 0.690998 0.344520
vt 0.739559 0.299726
vt 0.200700 0.972901
vt 0.226988 0.963728
vt 0.227623 0.976942
vt 0.345184 0.295496
vt 0.347494 0.309600
vt 0.329808 0.309579
vt 0.106419 0.972993
vt 0.102169 0.984682
vt 0.078123 0.976942
vt 0.643457 0.299572
vt 0.693763 0.286275
vt 0.343572 0.324249
vt 0.697560 0.241066
vt 0.178504 0.918851
vt 0.224323 0.905479
vt 0.255920 0.972993
vt 0.251669 0.984682
vt 0.324334 0.295822
vt 0.337174 0.283656
vt 0.051200 0.972901
vt 0.077488 0.963728
vt 0.125106 0.918862
vt 0.335618 0.337163
vt 0.323463 0.324331
vt 0.661537 0.236663
vt 0.768493 0.173640
vt 0.742277 0.221960
vt 0.745890 0.174308
vt 0.157742 0.849659
vt 0.222059 0.839091
vt 0.274606 0.918862
vt 0.662052 0.719453
vt 0.690999 0.710237
vt 0.690341 0.723450
vt 0.317067 0.292375
vt 0.324257 0.275699
vt 0.369231 0.292118
vt 0.363376 0.304527
vt 0.355250 0.266818
vt 0.866772 0.719455
vt 0.861684 0.731148
vt 0.839842 0.723450
vt 0.029004 0.918851
vt 0.074823 0.905479
vt 0.323779 0.345167
vt 0.094682 0.854689
vt 0.696943 0.171581
vt 0.689861 0.207086
vt 0.635370 0.194170
vt 0.365335 0.319384
vt 0.736693 0.140596
vt 0.149786 0.792716
vt 0.221340 0.790780
vt 0.292114 0.849410
vt 0.643458 0.665289
vt 0.693764 0.651992
vt 0.717272 0.719455
vt 0.712183 0.731148
vt 0.309573 0.289455
vt 0.334028 0.253029
vt 0.390124 0.277623
vt 0.396870 0.308938
vt 0.390513 0.283080
vt 0.368239 0.286326
vt 0.373520 0.250228
vt 0.811553 0.719452
vt 0.840500 0.710237
vt 0.889061 0.665442
vt 0.309669 0.347470
vt 0.309703 0.329784
vt 0.055696 0.861014
vt 0.142614 0.849410
vt 0.103870 0.843703
vt 0.125408 0.817130
vt 0.366241 0.334017
vt 0.357497 0.347473
vt 0.352016 0.347503
vt 0.619566 0.173291
vt 0.622762 0.119286
vt 0.676882 0.124699
vt 0.382091 0.334043
vt 0.390180 0.344335
vt 0.751141 0.058501
vt 0.726940 0.123469
vt 0.713820 0.069522
vt 0.221542 0.745892
vt 0.298714 0.792622
vt 0.626068 0.595808
vt 0.696141 0.585608
vt 0.739560 0.665443
vt 0.499702 0.972901
vt 0.525990 0.963727
vt 0.526626 0.976942
vt 0.302500 0.291694
vt 0.295497 0.274077
vt 0.309603 0.271771
vt 0.309431 0.247069
vt 0.344344 0.229094
vt 0.418530 0.266326
vt 0.422202 0.284822
vt 0.410313 0.281680
vt 0.395173 0.229159
vt 0.405422 0.972992
vt 0.401172 0.984681
vt 0.377126 0.976942
vt 0.792958 0.665289
vt 0.843264 0.651992
vt 0.295011 0.343540
vt 0.909940 0.596286
vt 0.016579 0.848289
vt 0.008242 0.849659
vt 0.004995 0.826419
vt 0.338720 0.355907
vt 0.071840 0.790780
vt 0.064028 0.830362
vt 0.002333 0.807368
vt 0.149214 0.792622
vt 0.110535 0.742108
vt 0.369041 0.373507
vt 0.357117 0.360375
vt 0.373357 0.347589
vt 0.625170 0.106945
vt 0.640347 0.103941
vt 0.425200 0.319302
vt 0.693186 0.010865
vt 0.699869 0.070416
vt 0.222942 0.690629
vt 0.153375 0.738477
vt 0.295610 0.738611
vt 0.619566 0.539008
vt 0.696943 0.537299
vt 0.760440 0.596287
vt 0.477505 0.918851
vt 0.523324 0.905478
vt 0.554922 0.972992
vt 0.550672 0.984681
vt 0.295818 0.294918
vt 0.286332 0.251022
vt 0.308946 0.222396
vt 0.356413 0.201092
vt 0.476047 0.243452
vt 0.438084 0.188201
vt 0.350202 0.972901
vt 0.376490 0.963728
vt 0.424108 0.918860
vt 0.282093 0.335583
vt 0.294925 0.323416
vt 0.775568 0.595808
vt 0.845641 0.585608
vt 0.913226 0.573051
vt 0.329116 0.367456
vt 0.042639 0.759851
vt 0.000286 0.792716
vt 0.143723 0.726266
vt 0.146110 0.738611
vt 0.418178 0.356403
vt 0.403977 0.376010
vt 0.338387 0.381918
vt 0.348987 0.363130
vt 0.435328 0.350472
vt 0.653926 0.044459
vt 0.651306 0.000286
vt 0.762772 0.784999
vt 0.761058 0.734817
vt 0.788868 0.760785
vt 0.225373 0.630070
vt 0.167336 0.677607
vt 0.283821 0.677631
vt 0.696818 0.492410
vt 0.768493 0.539357
vt 0.456743 0.849660
vt 0.521060 0.839090
vt 0.573608 0.918860
vt 0.811551 0.353735
vt 0.840498 0.344519
vt 0.839840 0.357732
vt 0.292368 0.302180
vt 0.275702 0.294994
vt 0.283658 0.282082
vt 0.266823 0.264006
vt 0.277631 0.229137
vt 0.309393 0.192189
vt 0.379242 0.148122
vt 0.618966 0.186608
vt 0.618993 0.313640
vt 0.483844 0.293347
vt 0.531742 0.094266
vt 0.866771 0.353738
vt 0.861682 0.365431
vt 0.328005 0.918851
vt 0.373824 0.905478
vt 0.274083 0.323746
vt 0.441615 0.849409
vt 0.769065 0.539009
vt 0.846443 0.537298
vt 0.309840 0.372173
vt 0.285242 0.366211
vt 0.846317 0.492410
vt 0.914496 0.485111
vt 0.917992 0.539356
vt 0.327536 0.388664
vt 0.341642 0.390106
vt 0.310325 0.396847
vt 0.017836 0.677607
vt 0.073442 0.690629
vt 0.072547 0.725940
vt 0.363678 0.399131
vt 0.428509 0.360855
vt 0.075873 0.630070
vt 0.117770 0.619563
vt 0.131518 0.667796
vt 0.766890 0.830180
vt 0.812685 0.790457
vt 0.718024 0.777517
vt 0.719738 0.731721
vt 0.267270 0.619563
vt 0.695512 0.437145
vt 0.622762 0.485004
vt 0.764997 0.485112
vt 0.448787 0.792717
vt 0.520340 0.790779
vt 0.591115 0.849409
vt 0.792957 0.299571
vt 0.843263 0.286275
vt 0.289453 0.309671
vt 0.271776 0.309643
vt 0.253034 0.285224
vt 0.250235 0.245736
vt 0.266337 0.200731
vt 0.309701 0.132870
vt 0.424861 0.042270
vt 0.925721 0.918178
vt 0.890368 0.918178
vt 0.918216 0.881806
vt 0.577011 0.424852
vt 0.496072 0.389972
vt 0.521827 0.371398
vt 0.889059 0.299725
vt 0.307243 0.849660
vt 0.371560 0.839090
vt 0.448214 0.792620
vt 0.274926 0.390147
vt 0.845011 0.437145
vt 0.900639 0.424217
vt 0.352938 0.418514
vt 0.115136 0.681727
vt 0.085259 0.697910
vt 0.375809 0.476037
vt 0.378587 0.402399
vt 0.812685 0.831893
vt 0.809589 0.873213
vt 0.716125 0.828281
vt 0.678302 0.731721
vt 0.693184 0.376583
vt 0.634654 0.424043
vt 0.751140 0.424218
vt 0.520541 0.745891
vt 0.597714 0.792620
vt 0.775568 0.230090
vt 0.845640 0.219891
vt 0.291691 0.316741
vt 0.247076 0.309816
vt 0.229095 0.274905
vt 0.229169 0.224083
vt 0.243468 0.143214
vt 0.313664 0.000286
vt 0.855539 0.902384
vt 0.881012 0.863667
vt 0.958187 0.904185
vt 0.945203 0.850423
vt 0.525009 0.531748
vt 0.431066 0.438075
vt 0.456558 0.400650
vt 0.909940 0.230569
vt 0.299287 0.792717
vt 0.370840 0.790779
vt 0.264019 0.352421
vt 0.371041 0.745891
vt 0.445109 0.738610
vt 0.772261 0.485004
vt 0.309877 0.427056
vt 0.842683 0.376582
vt 0.880811 0.366139
vt 0.759407 0.874927
vt 0.783621 0.901023
vt 0.415274 0.421529
vt 0.427698 0.425690
vt 0.432649 0.618981
vt 0.672843 0.781634
vt 0.648629 0.755538
vt 0.731312 0.366140
vt 0.521941 0.690629
vt 0.452374 0.738477
vt 0.594609 0.738610
vt 0.769065 0.173291
vt 0.846443 0.171581
vt 0.251032 0.332914
vt 0.222403 0.310302
vt 0.201099 0.262837
vt 0.188217 0.181171
vt 0.186644 0.000299
vt 0.827250 0.876650
vt 0.906486 0.824949
vt 0.999714 0.841067
vt 0.983921 0.875896
vt 0.917992 0.173640
vt 0.245749 0.369011
vt 0.372441 0.690629
vt 0.433320 0.677630
vt 0.262855 0.418150
vt 0.224095 0.390079
vt 0.784153 0.424043
vt 0.309568 0.486380
vt 0.714226 0.879045
vt 0.753949 0.924840
vt 0.999714 0.805714
vt 0.963343 0.813218
vt 0.669479 0.871563
vt 0.665361 0.826382
vt 0.622662 0.783348
vt 0.524371 0.630070
vt 0.466334 0.677607
vt 0.582820 0.677630
vt 0.846318 0.126693
vt 0.229147 0.341615
vt 0.192197 0.309854
vt 0.148134 0.240006
vt 0.094297 0.087505
vt 0.849628 0.836680
vt 0.813258 0.844184
vt 0.914497 0.119395
vt 0.302874 0.738477
vt 0.200740 0.352911
vt 0.374871 0.630070
vt 0.416768 0.619562
vt 0.240020 0.471123
vt 0.181179 0.431036
vt 0.305598 0.618990
vt 0.671193 0.921744
vt 0.985721 0.773248
vt 0.931959 0.786232
vt 0.619566 0.866104
vt 0.619566 0.824668
vt 0.566268 0.619562
vt 0.845011 0.071428
vt 0.772262 0.119286
vt 0.132878 0.309545
vt 0.042287 0.194375
vt 0.867768 0.799476
vt 0.813258 0.808831
vt 0.894755 0.768092
vt 0.900640 0.058501
vt 0.316834 0.677607
vt 0.143221 0.375780
vt 0.194384 0.576984
vt 0.087499 0.524966
vt 0.643383 0.895777
vt 0.922604 0.731721
vt 0.842685 0.010865
vt 0.784154 0.058325
vt 0.000286 0.305571
vt 0.829051 0.774002
vt 0.854784 0.745714
vt 0.880812 0.000422
vt 0.000286 0.432605
vt 0.887250 0.731721
vt 0.495909 0.305912
vt 0.470903 0.303675
vt 0.478975 0.292088
vt 0.471119 0.249526
vt 0.490136 0.223558
vt 0.500104 0.263867
vt 0.421429 0.295354
vt 0.444176 0.285463
vt 0.457501 0.315284
vt 0.446151 0.214792
vt 0.458930 0.197273
vt 0.393608 0.220307
vt 0.407220 0.213439
vt 0.439776 0.276177
vt 0.421622 0.211846
vt 0.394023 0.188225
vt 0.448315 0.189931
vt 0.308612 0.475907
vt 0.290065 0.468903
vt 0.288664 0.432718
vt 0.274756 0.429491
vt 0.246902 0.385298
vt 0.294564 0.408545
vt 0.245947 0.497973
vt 0.253033 0.468409
vt 0.234240 0.422111
vt 0.188172 0.406456
vt 0.227959 0.394304
vt 0.175781 0.478790
vt 0.192427 0.466060
vt 0.243064 0.467131
vt 0.191788 0.444914
vt 0.176910 0.426922
vt 0.372311 0.332270
vt 0.390955 0.346421
vt 0.365109 0.363305
vt 0.292838 0.378748
vt 0.296404 0.359695
vt 0.315044 0.362032
vt 0.365183 0.243255
vt 0.393516 0.241435
vt 0.373302 0.257472
vt 0.196759 0.304496
vt 0.194418 0.265639
vt 0.210025 0.298012
vt 0.280778 0.202870
vt 0.309268 0.193817
vt 0.310627 0.207770
vt 0.202323 0.201299
vt 0.229128 0.207281
vt 0.200905 0.226649
vt 0.666281 0.365431
vt 0.205768 0.984603
vt 0.327562 0.302506
vt 0.326907 0.317070
vt 0.730152 0.225540
vt 0.760440 0.230570
vt 0.695413 0.240200
vt 0.056268 0.984603
vt 0.626068 0.230090
vt 0.654428 0.225962
vt 0.696447 0.201431
vt 0.666282 0.731149
vt 0.365271 0.309474
vt 0.316788 0.327555
vt 0.073108 0.855188
vt 0.369004 0.322605
vt 0.764997 0.119395
vt 0.696836 0.133162
vt 0.370721 0.287594
vt 0.379252 0.309285
vt 0.378625 0.307984
vt 0.815783 0.731148
vt 0.017294 0.851758
vt 0.072389 0.827644
vt 0.348642 0.351147
vt 0.504771 0.984603
vt 0.424023 0.309338
vt 0.302197 0.326851
vt 0.332041 0.365954
vt 0.071997 0.755865
vt 0.695461 0.070081
vt 0.731314 0.000423
vt 0.479465 0.279229
vt 0.355271 0.984603
vt 0.906748 0.548832
vt 0.915920 0.554005
vt 0.329778 0.368762
vt 0.003875 0.738477
vt 0.059724 0.744552
vt 0.386120 0.391061
vt 0.637475 0.048496
vt 0.187263 0.619562
vt 0.815781 0.365431
vt 0.499281 0.310071
vt 0.037763 0.619562
vt 0.651305 0.366004
vt 0.800803 0.366004
vt 0.712513 0.924840
vt 0.486261 0.619562
vt 0.957432 0.747514
vt 0.336761 0.619562
vt 0.800805 0.000286
vt 0.503906 0.282894
vt 0.452888 0.347087
vt 0.470814 0.270688
vt 0.406657 0.275578
vt 0.452996 0.188225
vt 0.404968 0.206828
vt 0.442470 0.215927
vt 0.308612 0.417323
vt 0.236739 0.420422
vt 0.196919 0.433215
vt 0.242773 0.495876
vt 0.357160 0.347174
vt 0.374510 0.268821
vt 0.393516 0.264607
vt 0.319672 0.385206
vt 0.243974 0.351399
vt 0.251525 0.340991
vt 0.327948 0.217687
vt 0.332543 0.202007
vt 0.392358 0.235349
vt 0.235477 0.331546
vt 0.227087 0.338603
vt 0.175781 0.266956
vt 0.182922 0.238723
vt 0.196209 0.240120
vt 0.241739 0.203323
vt 0.279980 0.188225
vt 0.235443 0.189686
vt 0.186464 0.216812
vn 0.026500 0.999200 0.030600
vn 0.001500 0.999100 0.041400
vn 0.226400 0.938300 0.261400
vn 0.030600 0.999200 0.026500
vn -0.219900 -0.916500 -0.334200
vn -0.001500 0.999100 0.041400
vn 0.013200 0.935500 0.353100
vn -0.063200 -0.913800 -0.401200
vn 0.474400 0.689100 0.547800
vn 0.261400 0.938300 0.226400
vn 0.041400 0.999100 0.001500
vn -0.334200 -0.916500 -0.219900
vn -0.026500 0.999200 0.030600
vn -0.013200 0.935500 0.353100
vn 0.063200 -0.913800 -0.401200
vn 0.027400 0.680100 0.732600
vn 0.615100 0.342600 0.710200
vn 0.547800 0.689100 0.474400
vn 0.353100 0.935500 0.013200
vn 0.041400 0.999100 -0.001600
vn -0.382200 -0.924000 -0.014300
vn -0.406300 -0.673500 -0.617500
vn -0.617500 -0.673500 -0.406300
vn -0.030600 0.999200 0.026500
vn -0.226400 0.938300 0.261400
vn 0.219900 -0.916500 -0.334200
vn -0.027400 0.680100 0.732600
vn 0.035200 0.335100 0.941500
vn -0.115900 -0.666900 -0.736100
vn 0.649800 -0.121300 0.750300
vn 0.710200 0.342600 0.615100
vn 0.732600 0.680100 0.027400
vn 0.353100 0.935500 -0.013200
vn 0.030600 0.999200 -0.026500
vn -0.382200 -0.924000 0.014300
vn -0.736100 -0.666900 -0.115900
vn -0.503800 -0.399800 -0.765700
vn -0.765700 -0.399800 -0.503800
vn -0.041400 0.999100 0.001500
vn -0.261400 0.938300 0.226400
vn 0.334200 -0.916500 -0.219900
vn -0.474400 0.689100 0.547800
vn -0.035200 0.335100 0.941500
vn 0.115900 -0.666900 -0.736100
vn 0.037100 -0.118400 0.992300
vn -0.143000 -0.393800 -0.908000
vn 0.549000 -0.544800 0.633900
vn 0.750300 -0.121300 0.649800
vn 0.941500 0.335100 0.035200
vn 0.732600 0.680100 -0.027400
vn 0.261400 0.938300 -0.226400
vn 0.026500 0.999200 -0.030600
vn -0.283100 -0.927200 0.245200
vn -0.736100 -0.666900 0.115900
vn -0.908000 -0.393800 -0.143000
vn -0.547400 0.090300 -0.832000
vn -0.832000 0.090300 -0.547400
vn -0.041400 0.999100 -0.001500
vn -0.353100 0.935500 0.013200
vn 0.401200 -0.913800 -0.063200
vn -0.547800 0.689100 0.474400
vn -0.615100 0.342600 0.710200
vn 0.406300 -0.673500 -0.617500
vn -0.037100 -0.118400 0.992300
vn 0.143000 -0.393800 -0.908000
vn 0.031600 -0.535400 0.844000
vn -0.155000 0.088700 -0.983900
vn 0.333800 -0.860200 0.385400
vn 0.633900 -0.544800 0.549000
vn 0.992300 -0.118400 0.037100
vn 0.941500 0.335100 -0.035200
vn 0.547800 0.689100 -0.474400
vn 0.226400 0.938300 -0.261400
vn 0.001500 0.999100 -0.041400
vn -0.245200 -0.927200 0.283100
vn -0.617500 -0.673500 0.406300
vn -0.908000 -0.393800 0.143000
vn -0.983900 0.088700 -0.155000
vn -0.466800 0.527800 -0.709500
vn -0.709500 0.527800 -0.466800
vn -0.030600 0.999200 -0.026500
vn -0.353100 0.935500 -0.013200
vn 0.401200 -0.913800 0.063200
vn -0.732600 0.680100 0.027400
vn -0.710200 0.342600 0.615100
vn 0.617500 -0.673500 -0.406300
vn -0.649800 -0.121300 0.750300
vn -0.031600 -0.535400 0.844000
vn 0.155000 0.088700 -0.983900
vn 0.503800 -0.399800 -0.765700
vn -0.132800 0.521000 -0.843200
vn 0.019400 -0.854600 0.518900
vn 0.000000 -1.000000 0.000000
vn 0.385400 -0.860200 0.333800
vn 0.844000 -0.535400 0.031600
vn 0.992300 -0.118400 -0.037100
vn 0.710200 0.342600 -0.615100
vn 0.474400 0.689100 -0.547800
vn 0.013200 0.935500 -0.353100
vn -0.001500 0.999100 -0.041400
vn -0.014300 -0.924000 0.382200
vn -0.406300 -0.673500 0.617500
vn -0.765700 -0.399800 0.503800
vn -0.983900 0.088700 0.155000
vn -0.843200 0.521000 -0.132800
vn -0.242300 0.897600 -0.368200
vn -0.368200 0.897600 -0.242300
vn -0.026500 0.999200 -0.030600
vn -0.261400 0.938300 -0.226400
vn 0.334200 -0.916500 0.219900
vn -0.732600 0.680100 -0.027400
vn -0.941500 0.335100 0.035200
vn 0.736100 -0.666900 -0.115900
vn -0.750300 -0.121300 0.649800
vn 0.765700 -0.399800 -0.503800
vn -0.549000 -0.544800 0.633900
vn 0.547400 0.090300 -0.832000
vn 0.132800 0.521000 -0.843200
vn -0.019400 -0.854600 0.518900
vn 0.518900 -0.854600 0.019400
vn 0.844000 -0.535400 -0.031600
vn 0.750300 -0.121300 -0.649800
vn 0.615100 0.342600 -0.710200
vn 0.027400 0.680100 -0.732600
vn -0.013200 0.935500 -0.353100
vn 0.063200 -0.913800 0.401200
vn -0.115900 -0.666900 0.736100
vn -0.503800 -0.399800 0.765700
vn -0.832000 0.090300 0.547400
vn -0.843200 0.521000 0.132800
vn -0.441800 0.894400 -0.069600
vn 0.000000 1.000000 0.000000
vn -0.069600 0.894400 -0.441800
vn -0.226400 0.938300 -0.261400
vn -0.547800 0.689100 -0.474400
vn -0.941500 0.335100 -0.035200
vn 0.736100 -0.666900 0.115900
vn -0.992300 -0.118400 0.037100
vn 0.908000 -0.393800 -0.143000
vn -0.633900 -0.544800 0.549000
vn 0.832000 0.090300 -0.547400
vn -0.333800 -0.860200 0.385400
vn 0.466800 0.527800 -0.709500
vn 0.518900 -0.854600 -0.019400
vn 0.633900 -0.544800 -0.549000
vn 0.649800 -0.121300 -0.750300
vn 0.035200 0.335100 -0.941500
vn -0.027400 0.680100 -0.732600
vn 0.245200 -0.927200 0.283100
vn 0.115900 -0.666900 0.736100
vn -0.143000 -0.393800 0.908000
vn -0.547400 0.090300 0.832000
vn -0.709500 0.527800 0.466800
vn -0.441800 0.894400 0.069600
vn 0.069600 0.894400 -0.441800
vn -0.474400 0.689100 -0.547800
vn -0.710200 0.342600 -0.615100
vn 0.617500 -0.673500 0.406300
vn -0.992300 -0.118400 -0.037100
vn 0.908000 -0.393800 0.143000
vn -0.844000 -0.535400 0.031600
vn 0.983900 0.088700 -0.155000
vn -0.385400 -0.860200 0.333800
vn 0.709500 0.527800 -0.466800
vn 0.242300 0.897600 -0.368200
vn 0.385400 -0.860200 -0.333800
vn 0.549000 -0.544800 -0.633900
vn 0.037100 -0.118400 -0.992300
vn -0.035200 0.335100 -0.941500
vn 0.406300 -0.673500 0.617500
vn 0.143000 -0.393800 0.908000
vn -0.155000 0.088700 0.983900
vn -0.466800 0.527800 0.709500
vn -0.368200 0.897600 0.242300
vn -0.615100 0.342600 -0.710200
vn -0.750300 -0.121300 -0.649800
vn 0.765700 -0.399800 0.503800
vn -0.844000 -0.535400 -0.031600
vn 0.983900 0.088700 0.155000
vn -0.518900 -0.854600 0.019400
vn 0.843200 0.521000 -0.132800
vn 0.368200 0.897600 -0.242300
vn 0.333800 -0.860200 -0.385400
vn 0.031600 -0.535400 -0.844000
vn -0.037100 -0.118400 -0.992300
vn 0.503800 -0.399800 0.765700
vn 0.155000 0.088700 0.983900
vn -0.132800 0.521000 0.843200
vn -0.242300 0.897600 0.368200
vn -0.649800 -0.121300 -0.750300
vn -0.633900 -0.544800 -0.549000
vn 0.832000 0.090300 0.547400
vn -0.518900 -0.854600 -0.019400
vn 0.843200 0.521000 0.132800
vn 0.441800 0.894400 -0.069600
vn 0.019400 -0.854600 -0.518900
vn -0.031600 -0.535400 -0.844000
vn 0.547400 0.090300 0.832000
vn 0.132800 0.521000 0.843200
vn -0.069600 0.894400 0.441800
vn -0.549000 -0.544800 -0.633900
vn -0.385400 -0.860200 -0.333800
vn 0.709500 0.527800 0.466800
vn 0.441800 0.894400 0.069600
vn -0.019400 -0.854600 -0.518900
vn 0.466800 0.527800 0.709500
vn 0.069600 0.894400 0.441800
vn -0.333800 -0.860200 -0.385400
vn 0.368200 0.897600 0.242300
vn 0.242300 0.897600 0.368200
vn -0.826500 -0.562900 -0.000000
vn -0.143600 -0.989600 0.000000
vn 0.278200 0.960500 0.000000
vn 0.320600 -0.947200 0.000000
vn -0.466600 0.884500 0.000000
vn 0.867100 -0.498100 0.000000
vn -0.980600 -0.195900 0.000000
vn -0.451800 -0.892100 0.000000
vn 0.575100 0.818100 -0.000000
vn 0.205100 -0.978700 0.000000
vn -0.301500 0.953500 0.000000
vn 0.894600 -0.446800 0.000000
vn -0.907600 0.419800 0.000000
vn 0.324400 -0.945900 -0.000000
vn -0.169900 0.985500 -0.000000
vn -0.265000 -0.964200 0.000000
vn 0.249800 0.968300 -0.000000
vn 0.779000 0.627100 0.000000
vn -0.245200 -0.927200 -0.283100
vn -0.014300 -0.924000 -0.382200
vn -0.283100 -0.927200 -0.245200
vn 0.014300 -0.924000 -0.382200
vn 0.041400 0.999100 -0.001500
vn -0.401200 -0.913800 -0.063200
vn 0.245200 -0.927200 -0.283100
vn -0.401200 -0.913800 0.063200
vn 0.283100 -0.927200 -0.245200
vn -0.334200 -0.916500 0.219900
vn -0.041400 0.999100 -0.001600
vn 0.382200 -0.924000 -0.014300
vn -0.219900 -0.916500 0.334200
vn 0.382200 -0.924000 0.014300
vn -0.063200 -0.913800 0.401200
vn 0.283100 -0.927200 0.245200
vn 0.014300 -0.924000 0.382200
vn 0.219900 -0.916500 0.334200
usemtl Orangeness
s off
f 2/1/1 3/2/1 4/3/1
f 5/4/2 1/5/2 4/3/2
f 8/6/3 2/1/3 1/5/3
f 2/7/4 9/8/4 10/9/4
f 11/10/5 15/11/5 4/12/5
f 5/13/6 6/14/6 13/15/6
f 14/16/7 7/17/7 1/5/7
f 4/12/8 15/11/8 27/18/8
f 8/6/9 7/17/9 19/19/9
f 8/20/10 20/21/10 9/8/10
f 21/22/11 22/23/11 10/9/11
f 10/24/12 23/25/12 11/10/12
f 24/26/13 12/27/13 13/15/13
f 14/28/14 5/13/14 12/27/14
f 27/18/15 49/29/15 13/30/15
f 30/31/16 7/17/16 14/16/16
f 32/32/17 33/33/17 34/34/17
f 17/35/18 36/36/18 20/21/18
f 37/37/19 21/22/19 9/8/19
f 21/38/20 38/39/20 39/40/20
f 10/24/21 22/41/21 40/42/21
f 11/10/22 42/43/22 43/44/22
f 11/10/23 23/25/23 45/45/23
f 24/46/24 25/47/24 47/48/24
f 48/49/25 26/50/25 12/27/25
f 13/30/26 49/29/26 80/51/26
f 14/28/27 26/50/27 52/52/27
f 31/53/28 54/54/28 55/55/28
f 15/11/29 56/56/29 27/18/29
f 32/32/30 31/53/30 62/57/30
f 32/58/31 63/59/31 36/36/31
f 64/60/32 37/37/32 20/21/32
f 37/61/33 65/62/33 38/39/33
f 66/63/34 67/64/34 39/40/34
f 40/42/35 22/41/35 39/65/35
f 23/25/36 40/42/36 69/66/36
f 70/67/37 71/68/37 74/69/37
f 41/70/38 45/45/38 76/71/38
f 77/72/39 46/73/39 47/48/39
f 48/74/40 24/46/40 46/73/40
f 80/51/41 115/75/41 47/76/41
f 84/77/42 26/50/42 48/49/42
f 28/78/43 50/79/43 86/80/43
f 58/81/44 88/82/44 89/83/44
f 53/84/45 91/85/45 92/86/45
f 93/87/46 71/68/46 94/88/46
f 96/89/47 59/90/47 97/91/47
f 98/92/48 63/59/48 32/58/48
f 99/93/49 64/60/49 36/36/49
f 64/94/50 100/95/50 65/62/50
f 101/96/51 66/63/51 38/39/51
f 66/97/52 102/98/52 103/99/52
f 39/65/53 67/100/53 104/101/53
f 68/102/54 105/103/54 69/66/54
f 45/45/55 69/66/55 106/104/55
f 107/105/56 108/106/56 109/107/56
f 76/71/57 111/108/57 107/105/57
f 77/109/58 78/110/58 113/111/58
f 114/112/59 79/113/59 46/73/59
f 47/76/60 115/75/60 153/114/60
f 81/115/61 48/74/61 79/113/61
f 82/116/62 81/117/62 117/118/62
f 49/29/63 118/119/63 80/51/63
f 85/120/62 121/121/62 122/122/62
f 53/123/64 85/120/64 123/124/64
f 125/125/65 126/126/65 127/127/65
f 91/85/66 128/128/66 129/129/66
f 94/88/67 71/68/67 130/130/67
f 133/131/68 96/89/68 95/132/68
f 135/133/69 98/92/69 60/134/69
f 98/92/70 136/135/70 99/93/70
f 99/136/71 137/137/71 100/95/71
f 138/138/72 101/96/72 65/62/72
f 101/139/73 139/140/73 102/98/73
f 140/141/74 141/142/74 103/99/74
f 104/101/75 67/100/75 103/143/75
f 104/101/76 143/144/76 105/103/76
f 105/103/77 144/145/77 106/104/77
f 106/104/78 145/146/78 111/108/78
f 107/105/79 146/147/79 108/106/79
f 111/108/80 149/148/80 146/147/80
f 150/149/81 112/150/81 113/111/81
f 114/151/82 77/109/82 112/150/82
f 153/114/83 192/152/83 113/153/83
f 154/154/84 116/155/84 79/113/84
f 117/156/85 81/115/85 116/155/85
f 80/51/86 157/157/86 115/75/86
f 162/158/87 85/120/87 120/159/87
f 128/160/88 91/161/88 123/124/88
f 94/88/89 131/162/89 164/163/89
f 125/125/90 166/164/90 167/165/90
f 131/162/91 130/130/91 168/166/91
f 133/131/92 171/167/92 170/168/92
f 173/169/93 174/170/93 134/171/93
f 174/172/94 135/133/94 96/173/94
f 135/133/95 175/174/95 136/135/95
f 176/175/96 137/137/96 99/136/96
f 177/176/97 138/138/97 100/95/97
f 138/177/98 178/178/98 139/140/98
f 179/179/99 140/141/99 102/98/99
f 140/180/100 180/181/100 181/182/100
f 103/143/101 141/183/101 182/184/101
f 104/101/102 142/185/102 183/186/102
f 143/144/103 184/187/103 144/145/103
f 106/104/104 144/145/104 185/188/104
f 145/146/105 186/189/105 149/148/105
f 187/190/106 188/191/106 147/192/106
f 149/148/107 190/193/107 187/190/107
f 150/194/108 151/195/108 181/182/108
f 191/196/109 152/197/109 112/150/109
f 113/153/110 192/152/110 225/198/110
f 154/199/111 114/151/111 152/197/111
f 194/200/112 155/201/112 116/155/112
f 115/75/113 159/202/113 195/203/113
f 196/204/114 160/205/114 120/206/114
f 197/207/115 165/208/115 198/209/115
f 199/210/116 200/211/116 201/212/116
f 125/125/117 202/213/117 165/208/117
f 164/163/118 131/162/118 169/214/118
f 206/215/119 170/216/119 172/217/119
f 207/218/93 173/169/93 133/219/93
f 208/220/93 209/221/93 174/170/93
f 174/172/120 209/222/120 175/174/120
f 210/223/121 176/175/121 136/224/121
f 176/175/122 211/225/122 177/176/122
f 177/226/123 212/227/123 178/178/123
f 213/228/124 179/179/124 139/140/124
f 179/229/125 214/230/125 180/181/125
f 181/231/126 215/232/126 182/184/126
f 142/185/127 182/184/127 216/233/127
f 143/144/128 183/186/128 217/234/128
f 144/145/129 184/187/129 218/235/129
f 145/146/130 185/188/130 219/236/130
f 186/189/131 220/237/131 190/193/131
f 187/238/132 190/239/132 221/240/132
f 222/241/133 223/242/133 224/243/133
f 191/244/134 150/194/134 180/181/134
f 226/245/135 193/246/135 152/197/135
f 194/247/136 154/199/136 193/246/136
f 192/152/137 153/114/137 195/203/137
f 196/204/138 155/201/138 194/200/138
f 159/202/139 198/209/139 230/248/139
f 231/249/140 199/250/140 160/205/140
f 198/209/141 165/208/141 204/251/141
f 206/215/142 200/211/142 199/210/142
f 200/211/88 205/252/88 234/253/88
f 237/254/143 204/251/143 203/255/143
f 207/218/93 170/256/93 206/257/93
f 239/258/93 208/220/93 173/169/93
f 241/259/93 209/221/93 208/220/93
f 241/260/144 210/223/144 175/261/144
f 210/223/145 242/262/145 211/225/145
f 243/263/146 212/227/146 177/226/146
f 244/264/147 213/228/147 178/178/147
f 213/265/148 245/266/148 214/230/148
f 181/231/149 151/267/149 225/198/149
f 215/232/150 246/268/150 216/233/150
f 183/186/151 216/233/151 247/269/151
f 217/234/152 248/270/152 218/235/152
f 185/188/153 218/235/153 249/271/153
f 186/189/154 219/236/154 250/272/154
f 190/239/132 220/273/132 251/274/132
f 188/275/132 221/240/132 252/276/132
f 253/277/155 236/278/155 254/279/155
f 226/280/156 191/244/156 214/230/156
f 255/281/157 227/282/157 193/246/157
f 225/198/158 192/152/158 228/283/158
f 257/284/159 229/285/159 194/247/159
f 228/283/160 195/203/160 230/248/160
f 231/249/161 196/204/161 229/286/161
f 230/248/162 198/209/162 232/287/162
f 261/288/163 233/289/163 199/250/163
f 232/287/164 204/251/164 237/254/164
f 238/290/93 206/257/93 233/291/93
f 236/278/118 235/292/118 263/293/118
f 236/278/165 253/277/165 264/294/165
f 239/258/93 207/218/93 238/290/93
f 240/295/93 208/220/93 239/258/93
f 268/296/93 241/259/93 240/295/93
f 241/260/166 268/297/166 242/262/166
f 269/298/167 243/263/167 211/299/167
f 243/263/168 270/300/168 244/264/168
f 244/301/169 271/302/169 245/266/169
f 225/198/170 256/303/170 246/268/170
f 246/268/171 272/304/171 247/269/171
f 247/269/172 273/305/172 248/270/172
f 248/270/173 274/306/173 249/271/173
f 219/236/174 249/271/174 275/307/174
f 251/274/132 220/273/132 250/308/132
f 221/240/132 251/274/132 277/309/132
f 253/310/132 222/311/132 252/276/132
f 255/312/175 226/280/175 245/266/175
f 257/284/176 227/282/176 255/281/176
f 256/303/177 228/283/177 258/313/177
f 281/314/178 259/315/178 229/285/178
f 230/248/179 260/316/179 282/317/179
f 261/288/180 231/249/180 259/318/180
f 260/316/181 232/287/181 262/319/181
f 262/319/182 237/254/182 264/294/182
f 265/320/93 238/290/93 261/321/93
f 264/322/132 253/310/132 278/323/132
f 286/324/93 266/325/93 239/258/93
f 267/326/93 240/295/93 266/325/93
f 267/327/183 269/298/183 242/328/183
f 269/298/184 288/329/184 270/300/184
f 289/330/185 271/302/185 244/301/185
f 256/303/186 280/331/186 272/304/186
f 247/269/187 272/304/187 290/332/187
f 273/305/188 291/333/188 274/306/188
f 274/306/189 292/334/189 275/307/189
f 276/335/132 250/308/132 275/336/132
f 277/309/132 251/274/132 276/335/132
f 278/323/132 252/276/132 277/309/132
f 289/330/190 279/337/190 255/312/190
f 281/314/191 257/284/191 279/338/191
f 258/313/192 282/317/192 296/339/192
f 297/340/193 283/341/193 259/315/193
f 260/316/194 284/342/194 298/343/194
f 284/342/195 262/319/195 285/344/195
f 297/345/93 286/324/93 265/320/93
f 285/346/132 278/323/132 294/347/132
f 300/348/93 287/349/93 266/325/93
f 267/327/196 287/350/196 288/329/196
f 301/351/197 289/330/197 270/352/197
f 272/304/198 280/331/198 296/339/198
f 273/305/199 290/332/199 302/353/199
f 291/333/200 303/354/200 292/334/200
f 293/355/132 276/335/132 292/356/132
f 277/309/132 293/355/132 304/357/132
f 301/351/201 295/358/201 279/337/201
f 297/340/202 281/314/202 295/359/202
f 282/317/203 298/343/203 306/360/203
f 284/342/204 299/361/204 307/362/204
f 305/363/93 300/348/93 286/324/93
f 294/347/132 304/357/132 307/364/132
f 300/365/205 301/351/205 288/366/205
f 290/332/206 296/339/206 306/360/206
f 291/333/207 302/353/207 308/367/207
f 293/355/132 303/368/132 308/369/132
f 300/365/208 305/370/208 295/358/208
f 298/343/209 307/362/209 309/371/209
f 304/357/132 308/369/132 309/372/132
f 302/353/210 306/360/210 309/371/210
f 88/373/211 50/374/211 52/375/211
f 84/376/212 118/377/212 90/378/212
f 126/379/213 87/380/213 86/381/213
f 83/382/214 119/383/214 118/377/214
f 166/384/215 122/385/215 121/386/215
f 117/387/216 197/388/216 158/389/216
f 74/390/217 34/391/217 33/392/217
f 16/393/218 43/394/218 42/395/218
f 73/396/219 35/397/219 34/391/219
f 18/398/220 56/399/220 44/400/220
f 93/401/221 55/402/221 54/403/221
f 29/404/222 93/401/222 57/405/222
f 108/406/223 59/407/223 62/408/223
f 92/409/224 130/410/224 110/411/224
f 189/412/225 95/413/225 147/414/225
f 123/415/226 163/416/226 164/417/226
f 254/418/227 172/419/227 223/420/227
f 201/421/228 235/422/228 203/423/228
f 1/5/1 2/1/1 4/3/1
f 6/424/2 5/4/2 4/3/2
f 7/17/3 8/6/3 1/5/3
f 3/425/4 2/7/4 10/9/4
f 3/426/229 11/10/229 4/12/229
f 12/27/6 5/13/6 13/15/6
f 5/4/7 14/16/7 1/5/7
f 6/427/230 4/12/230 27/18/230
f 19/19/9 16/428/9 8/6/9
f 17/429/9 8/6/9 16/428/9
f 7/17/9 18/430/9 19/19/9
f 2/7/10 8/20/10 9/8/10
f 9/8/11 21/22/11 10/9/11
f 3/426/231 10/24/231 11/10/231
f 25/431/13 24/26/13 13/15/13
f 26/50/14 14/28/14 12/27/14
f 6/427/232 27/18/232 13/30/232
f 14/16/16 28/432/16 30/31/16
f 30/31/16 18/430/16 7/17/16
f 28/432/16 29/433/16 30/31/16
f 17/429/17 16/428/17 33/33/17
f 34/34/17 35/434/17 31/53/17
f 32/32/17 17/429/17 33/33/17
f 34/34/17 31/53/17 32/32/17
f 8/20/18 17/35/18 20/21/18
f 20/21/19 37/37/19 9/8/19
f 22/435/233 21/38/233 39/40/233
f 23/25/234 10/24/234 40/42/234
f 44/436/22 15/11/22 43/44/22
f 11/10/22 41/70/22 42/43/22
f 43/44/22 15/11/22 11/10/22
f 41/70/23 11/10/23 45/45/23
f 46/73/24 24/46/24 47/48/24
f 24/26/25 48/49/25 12/27/25
f 25/437/235 13/30/235 80/51/235
f 52/52/27 50/79/27 28/78/27
f 28/78/27 14/28/27 52/52/27
f 26/50/27 51/438/27 52/52/27
f 53/84/28 31/53/28 55/55/28
f 29/433/28 28/432/28 55/55/28
f 35/434/28 54/54/28 31/53/28
f 55/55/28 28/432/28 53/84/28
f 58/81/29 27/18/29 56/56/29
f 15/11/29 44/436/29 56/56/29
f 56/56/29 57/439/29 58/81/29
f 62/57/30 59/90/30 60/440/30
f 60/440/30 32/32/30 62/57/30
f 31/53/30 61/441/30 62/57/30
f 17/35/31 32/58/31 36/36/31
f 36/36/32 64/60/32 20/21/32
f 21/38/33 37/61/33 38/39/33
f 38/39/34 66/63/34 39/40/34
f 68/102/236 40/42/236 39/65/236
f 45/45/36 23/25/36 69/66/36
f 75/442/37 42/43/37 41/70/37
f 71/68/37 72/443/37 73/444/37
f 75/442/37 41/70/37 70/67/37
f 71/68/37 73/444/37 74/69/37
f 74/69/37 75/442/37 70/67/37
f 70/67/38 41/70/38 76/71/38
f 78/445/39 77/72/39 47/48/39
f 79/113/40 48/74/40 46/73/40
f 25/437/237 80/51/237 47/76/237
f 48/49/42 81/117/42 83/446/42
f 84/77/42 51/438/42 26/50/42
f 81/117/42 82/116/42 83/446/42
f 83/446/42 84/77/42 48/49/42
f 87/447/43 85/120/43 86/80/43
f 53/123/43 28/78/43 86/80/43
f 86/80/43 85/120/43 53/123/43
f 90/448/44 49/29/44 89/83/44
f 27/18/44 58/81/44 89/83/44
f 89/83/44 49/29/44 27/18/44
f 92/86/45 61/441/45 31/53/45
f 31/53/45 53/84/45 92/86/45
f 94/88/46 58/81/46 93/87/46
f 93/87/46 72/443/46 71/68/46
f 58/81/46 57/439/46 93/87/46
f 97/91/47 95/132/47 96/89/47
f 96/89/47 60/440/47 59/90/47
f 60/134/48 98/92/48 32/58/48
f 63/59/49 99/93/49 36/36/49
f 37/61/50 64/94/50 65/62/50
f 65/62/51 101/96/51 38/39/51
f 67/449/52 66/97/52 103/99/52
f 68/102/238 39/65/238 104/101/238
f 40/42/54 68/102/54 69/66/54
f 76/71/55 45/45/55 106/104/55
f 110/450/56 71/68/56 109/107/56
f 70/67/56 107/105/56 109/107/56
f 109/107/56 71/68/56 70/67/56
f 70/67/57 76/71/57 107/105/57
f 112/150/239 77/109/239 113/111/239
f 77/72/59 114/112/59 46/73/59
f 78/451/240 47/76/240 153/114/240
f 116/155/61 81/115/61 79/113/61
f 119/452/63 80/51/63 118/119/63
f 49/29/63 90/448/63 118/119/63
f 122/122/62 120/159/62 85/120/62
f 85/120/62 87/447/62 121/121/62
f 124/453/64 123/124/64 85/120/64
f 91/161/64 53/123/64 123/124/64
f 127/127/65 88/82/65 58/81/65
f 94/88/65 125/125/65 127/127/65
f 127/127/65 58/81/65 94/88/65
f 92/86/66 91/85/66 129/129/66
f 110/450/67 130/130/67 71/68/67
f 131/162/67 94/88/67 130/130/67
f 95/132/68 132/454/68 133/131/68
f 133/131/68 134/455/68 96/89/68
f 96/173/69 135/133/69 60/134/69
f 63/59/70 98/92/70 99/93/70
f 64/94/71 99/136/71 100/95/71
f 100/95/72 138/138/72 65/62/72
f 66/97/73 101/139/73 102/98/73
f 102/98/74 140/141/74 103/99/74
f 142/185/241 104/101/241 103/143/241
f 68/102/76 104/101/76 105/103/76
f 69/66/77 105/103/77 106/104/77
f 76/71/78 106/104/78 111/108/78
f 148/456/79 108/106/79 146/147/79
f 146/147/79 147/192/79 148/456/79
f 107/105/80 111/108/80 146/147/80
f 151/457/81 150/149/81 113/111/81
f 152/197/82 114/151/82 112/150/82
f 78/451/242 153/114/242 113/153/242
f 114/112/84 154/154/84 79/113/84
f 116/155/85 155/201/85 156/458/85
f 120/206/85 122/459/85 156/458/85
f 156/458/85 117/156/85 116/155/85
f 155/201/85 120/206/85 156/458/85
f 159/202/86 115/75/86 157/157/86
f 80/51/86 119/452/86 157/157/86
f 157/157/86 158/460/86 159/202/86
f 120/159/87 160/461/87 162/158/87
f 162/158/87 124/453/87 85/120/87
f 160/461/87 161/462/87 162/158/87
f 164/163/89 163/463/89 125/125/89
f 125/125/89 94/88/89 164/163/89
f 167/165/90 126/126/90 125/125/90
f 125/125/90 165/208/90 166/164/90
f 169/214/91 131/162/91 168/166/91
f 172/464/92 170/168/92 171/167/92
f 133/131/92 132/454/92 171/167/92
f 133/219/93 173/169/93 134/171/93
f 134/465/94 174/172/94 96/173/94
f 98/92/95 135/133/95 136/135/95
f 136/224/96 176/175/96 99/136/96
f 137/137/97 177/176/97 100/95/97
f 101/139/98 138/177/98 139/140/98
f 139/140/99 179/179/99 102/98/99
f 141/466/100 140/180/100 181/182/100
f 142/185/243 103/143/243 182/184/243
f 143/144/102 104/101/102 183/186/102
f 105/103/103 143/144/103 144/145/103
f 145/146/104 106/104/104 185/188/104
f 111/108/105 145/146/105 149/148/105
f 189/467/106 147/192/106 188/191/106
f 146/147/106 187/190/106 147/192/106
f 146/147/107 149/148/107 187/190/107
f 180/181/108 150/194/108 181/182/108
f 150/149/109 191/196/109 112/150/109
f 151/267/244 113/153/244 225/198/244
f 193/246/111 154/199/111 152/197/111
f 154/154/112 194/200/112 116/155/112
f 153/114/113 115/75/113 195/203/113
f 155/201/114 196/204/114 120/206/114
f 198/209/115 159/202/115 197/207/115
f 197/207/115 166/164/115 165/208/115
f 159/202/115 158/460/115 197/207/115
f 201/212/116 161/462/116 160/461/116
f 160/461/116 199/210/116 201/212/116
f 204/251/117 165/208/117 202/213/117
f 125/125/117 163/463/117 202/213/117
f 202/213/117 203/255/117 204/251/117
f 172/217/119 205/252/119 206/215/119
f 200/211/119 206/215/119 205/252/119
f 170/256/93 207/218/93 133/219/93
f 173/169/93 208/220/93 174/170/93
f 135/133/120 174/172/120 175/174/120
f 175/261/121 210/223/121 136/224/121
f 137/137/122 176/175/122 177/176/122
f 138/177/123 177/226/123 178/178/123
f 178/178/124 213/228/124 139/140/124
f 140/180/125 179/229/125 180/181/125
f 141/183/245 181/231/245 182/184/245
f 183/186/127 142/185/127 216/233/127
f 184/187/128 143/144/128 217/234/128
f 185/188/129 144/145/129 218/235/129
f 186/189/130 145/146/130 219/236/130
f 149/148/131 186/189/131 190/193/131
f 188/275/132 187/238/132 221/240/132
f 224/243/133 189/467/133 188/191/133
f 188/191/133 222/241/133 224/243/133
f 214/230/134 191/244/134 180/181/134
f 191/196/135 226/245/135 152/197/135
f 227/282/136 194/247/136 193/246/136
f 228/283/137 192/152/137 195/203/137
f 229/286/138 196/204/138 194/200/138
f 195/203/139 159/202/139 230/248/139
f 196/204/140 231/249/140 160/205/140
f 232/287/141 198/209/141 204/251/141
f 233/468/142 206/215/142 199/210/142
f 201/212/88 200/211/88 234/253/88
f 203/255/143 235/292/143 237/254/143
f 236/278/143 237/254/143 235/292/143
f 238/290/93 207/218/93 206/257/93
f 207/218/93 239/258/93 173/169/93
f 240/295/93 241/259/93 208/220/93
f 209/469/144 241/260/144 175/261/144
f 176/175/145 210/223/145 211/225/145
f 211/299/146 243/263/146 177/226/146
f 212/227/147 244/264/147 178/178/147
f 179/229/148 213/265/148 214/230/148
f 215/232/246 181/231/246 225/198/246
f 182/184/150 215/232/150 216/233/150
f 217/234/151 183/186/151 247/269/151
f 184/187/152 217/234/152 218/235/152
f 219/236/153 185/188/153 249/271/153
f 220/237/154 186/189/154 250/272/154
f 221/240/132 190/239/132 251/274/132
f 222/311/132 188/275/132 252/276/132
f 254/279/155 223/242/155 222/241/155
f 222/241/155 253/277/155 254/279/155
f 245/266/156 226/280/156 214/230/156
f 226/245/157 255/281/157 193/246/157
f 256/303/158 225/198/158 228/283/158
f 227/282/159 257/284/159 194/247/159
f 258/313/160 228/283/160 230/248/160
f 259/318/161 231/249/161 229/286/161
f 260/316/162 230/248/162 232/287/162
f 231/249/163 261/288/163 199/250/163
f 262/319/164 232/287/164 237/254/164
f 261/321/93 238/290/93 233/291/93
f 254/279/118 236/278/118 263/293/118
f 237/254/165 236/278/165 264/294/165
f 265/320/93 239/258/93 238/290/93
f 266/325/93 240/295/93 239/258/93
f 267/326/93 268/296/93 240/295/93
f 210/223/166 241/260/166 242/262/166
f 242/328/167 269/298/167 211/299/167
f 212/227/168 243/263/168 244/264/168
f 213/265/169 244/301/169 245/266/169
f 215/232/170 225/198/170 246/268/170
f 216/233/171 246/268/171 247/269/171
f 217/234/172 247/269/172 248/270/172
f 218/235/173 248/270/173 249/271/173
f 250/272/174 219/236/174 275/307/174
f 276/335/132 251/274/132 250/308/132
f 252/276/132 221/240/132 277/309/132
f 278/323/132 253/310/132 252/276/132
f 271/302/175 255/312/175 245/266/175
f 279/338/176 257/284/176 255/281/176
f 280/331/177 256/303/177 258/313/177
f 257/284/178 281/314/178 229/285/178
f 258/313/179 230/248/179 282/317/179
f 283/470/180 261/288/180 259/318/180
f 284/342/181 260/316/181 262/319/181
f 285/344/182 262/319/182 264/294/182
f 283/471/93 265/320/93 261/321/93
f 285/346/132 264/322/132 278/323/132
f 265/320/93 286/324/93 239/258/93
f 287/349/93 267/326/93 266/325/93
f 268/472/183 267/327/183 242/328/183
f 243/263/184 269/298/184 270/300/184
f 270/352/185 289/330/185 244/301/185
f 246/268/186 256/303/186 272/304/186
f 273/305/187 247/269/187 290/332/187
f 248/270/188 273/305/188 274/306/188
f 249/271/189 274/306/189 275/307/189
f 292/356/132 276/335/132 275/336/132
f 293/355/132 277/309/132 276/335/132
f 294/347/132 278/323/132 277/309/132
f 271/302/190 289/330/190 255/312/190
f 295/359/191 281/314/191 279/338/191
f 280/331/192 258/313/192 296/339/192
f 281/314/193 297/340/193 259/315/193
f 282/317/194 260/316/194 298/343/194
f 299/361/195 284/342/195 285/344/195
f 283/471/93 297/345/93 265/320/93
f 299/473/132 285/346/132 294/347/132
f 286/324/93 300/348/93 266/325/93
f 269/298/196 267/327/196 288/329/196
f 288/366/197 301/351/197 270/352/197
f 290/332/198 272/304/198 296/339/198
f 291/333/199 273/305/199 302/353/199
f 274/306/200 291/333/200 292/334/200
f 303/368/132 293/355/132 292/356/132
f 294/347/132 277/309/132 304/357/132
f 289/330/201 301/351/201 279/337/201
f 305/474/202 297/340/202 295/359/202
f 296/339/203 282/317/203 306/360/203
f 298/343/204 284/342/204 307/362/204
f 297/345/93 305/363/93 286/324/93
f 299/473/132 294/347/132 307/364/132
f 287/475/205 300/365/205 288/366/205
f 302/353/206 290/332/206 306/360/206
f 303/354/207 291/333/207 308/367/207
f 304/357/132 293/355/132 308/369/132
f 301/351/208 300/365/208 295/358/208
f 306/360/209 298/343/209 309/371/209
f 307/364/132 304/357/132 309/372/132
f 308/367/210 302/353/210 309/371/210
f 52/375/211 89/476/211 88/373/211
f 88/373/211 127/477/211 50/374/211
f 86/381/211 50/374/211 127/477/211
f 89/476/212 52/375/212 51/478/212
f 51/478/212 84/376/212 90/378/212
f 90/378/212 89/476/212 51/478/212
f 86/381/213 127/477/213 126/379/213
f 126/379/213 167/479/213 121/386/213
f 121/386/213 87/380/213 126/379/213
f 118/377/214 84/376/214 83/382/214
f 83/382/214 157/480/214 119/383/214
f 121/386/215 167/479/215 166/384/215
f 166/384/215 197/388/215 156/481/215
f 156/481/215 122/385/215 166/384/215
f 157/480/216 83/382/216 158/389/216
f 82/482/216 117/387/216 158/389/216
f 156/481/216 197/388/216 117/387/216
f 158/389/216 83/382/216 82/482/216
f 75/483/217 74/390/217 33/392/217
f 75/483/218 33/392/218 42/395/218
f 16/393/218 19/484/218 43/394/218
f 42/395/218 33/392/218 16/393/218
f 34/391/219 74/390/219 73/396/219
f 73/396/219 54/403/219 35/397/219
f 43/394/220 19/484/220 44/400/220
f 18/398/220 30/485/220 56/399/220
f 44/400/220 19/484/220 18/398/220
f 54/403/221 73/396/221 72/486/221
f 72/486/221 93/401/221 54/403/221
f 56/399/222 30/485/222 57/405/222
f 29/404/222 55/402/222 93/401/222
f 57/405/222 30/485/222 29/404/222
f 62/408/223 109/487/223 108/406/223
f 108/406/223 148/488/223 97/489/223
f 97/489/223 59/407/223 108/406/223
f 109/487/224 62/408/224 110/411/224
f 61/490/224 92/409/224 110/411/224
f 129/491/224 168/492/224 130/410/224
f 110/411/224 62/408/224 61/490/224
f 129/491/224 130/410/224 92/409/224
f 97/489/225 148/488/225 147/414/225
f 189/412/225 224/493/225 171/494/225
f 97/489/225 147/414/225 95/413/225
f 132/495/225 95/413/225 189/412/225
f 189/412/225 171/494/225 132/495/225
f 168/492/226 129/491/226 169/496/226
f 128/497/226 123/415/226 164/417/226
f 124/498/226 162/499/226 163/416/226
f 169/496/226 129/491/226 128/497/226
f 162/499/226 202/500/226 163/416/226
f 164/417/226 169/496/226 128/497/226
f 124/498/226 163/416/226 123/415/226
f 171/494/227 224/493/227 223/420/227
f 254/418/227 263/501/227 205/502/227
f 171/494/227 223/420/227 172/419/227
f 205/502/227 172/419/227 254/418/227
f 263/501/227 234/503/227 205/502/227
f 202/500/228 162/499/228 203/423/228
f 161/504/228 201/421/228 203/423/228
f 234/503/228 263/501/228 235/422/228
f 203/423/228 162/499/228 161/504/228
f 234/503/228 235/422/228 201/421/228
